muy == 1
super == 1
ultra == 1
demasiad# == 1
poc# == -1
gran == 1
enorme == 1
pequeñ# == -1
grande == 1
algo == -1
bastante == 1
mas == 1
menos == -1
much# == 1
definitivamente == 1
extremadamente == 1
increiblemente == 1
unicamente == 1
﻿absolutamente == 1
tan == 1
muxo == 1